^C:\DEV\CONSOLEAPPLICATION1\CONSOLEAPPLICATION1\MAIN.CPP
/c /I"C:\DEV\CONSOLEAPPLICATION1\PACKAGES\SFML-AUDIO.2.4.2.0\BUILD\NATIVE\../..//BUILD/NATIVE/INCLUDE/" /I"C:\DEV\CONSOLEAPPLICATION1\PACKAGES\SFML-SYSTEM.2.4.2.0\BUILD\NATIVE\../..//BUILD/NATIVE/INCLUDE/" /ZI /nologo /W3 /WX- /sdl /Od /Oy- /D HAS_SFML /D HAS_SFML /D WIN32 /D _DEBUG /D _CONSOLE /D _UNICODE /D UNICODE /Gm /EHsc /RTC1 /MDd /GS /fp:precise /Zc:wchar_t /Zc:forScope /Zc:inline /Fo"DEBUG\\" /Fd"DEBUG\VC140.PDB" /Gd /TP /analyze- C:\DEV\CONSOLEAPPLICATION1\CONSOLEAPPLICATION1\MAIN.CPP
^C:\DEV\CONSOLEAPPLICATION1\CONSOLEAPPLICATION1\BLOCK.CPP
/c /ZI /nologo /W3 /WX- /sdl /Od /Oy- /D WIN32 /D _DEBUG /D _CONSOLE /D _UNICODE /D UNICODE /Gm /EHsc /RTC1 /MDd /GS /fp:precise /Zc:wchar_t /Zc:forScope /Zc:inline /Fo"DEBUG\\" /Fd"DEBUG\VC140.PDB" /Gd /TP /analyze- C:\DEV\CONSOLEAPPLICATION1\CONSOLEAPPLICATION1\BLOCK.CPP
^C:\DEV\CONSOLEAPPLICATION1\CONSOLEAPPLICATION1\BLOCKCONTAINER.CPP
/c /ZI /nologo /W3 /WX- /sdl /Od /Oy- /D WIN32 /D _DEBUG /D _CONSOLE /D _UNICODE /D UNICODE /Gm /EHsc /RTC1 /MDd /GS /fp:precise /Zc:wchar_t /Zc:forScope /Zc:inline /Fo"DEBUG\\" /Fd"DEBUG\VC140.PDB" /Gd /TP /analyze- C:\DEV\CONSOLEAPPLICATION1\CONSOLEAPPLICATION1\BLOCKCONTAINER.CPP
^C:\DEV\CONSOLEAPPLICATION3\CONSOLEAPPLICATION1\MAIN.CPP
/c /I"C:\DEV\CONSOLEAPPLICATION3\PACKAGES\SFML-AUDIO.2.4.2.0\BUILD\NATIVE\../..//BUILD/NATIVE/INCLUDE/" /I"C:\DEV\CONSOLEAPPLICATION3\PACKAGES\SFML-SYSTEM.2.4.2.0\BUILD\NATIVE\../..//BUILD/NATIVE/INCLUDE/" /ZI /nologo /W3 /WX- /sdl /Od /Oy- /D HAS_SFML /D HAS_SFML /D WIN32 /D _DEBUG /D _CONSOLE /D _UNICODE /D UNICODE /Gm /EHsc /RTC1 /MDd /GS /fp:precise /Zc:wchar_t /Zc:forScope /Zc:inline /Fo"DEBUG\\" /Fd"DEBUG\VC140.PDB" /Gd /TP /analyze- C:\DEV\CONSOLEAPPLICATION3\CONSOLEAPPLICATION1\MAIN.CPP
